MetabolicSummary_2025-05-19
…
#ggsave("[filepath]OrderEffects_NetPower_2026-05-12.svg",width=7,height=4,units="in",dpi=600)

pwc_order <- netpower_complete %>% pairwise_t_test(`Net Power`~Block, paired=TRUE, p.adjust.method = "bonf")
pwc_order

## # A tibble: 45 × 10
##    .y.   group1 group2    n1    n2 statistic    df        p   p.adj p.adj.signif
##  * <chr> <chr>  <chr>  <int> <int>     <dbl> <dbl>    <dbl>   <dbl> <chr>       
##  1 Net … 1      2         11    11     -8.51    10 6.82e- 6 3.07e-4 ***         
##  2 Net … 1      3         11    11    -17.5     10 7.75e- 9 3.49e-7 ****        
##  3 Net … 1      4         11    11    -11.7     10 3.64e- 7 1.64e-5 ****        
##  4 Net … 1      5         11    11    -11.4     10 4.74e- 7 2.13e-5 ****        
##  5 Net … 1      6         11    11     -9.37    10 2.88e- 6 1.3 e-4 ***         
##  6 Net … 1      7         11    11    -13.6     10 8.89e- 8 4   e-6 ****        
##  7 Net … 1      8         11    11    -10.1     10 1.48e- 6 6.66e-5 ****        
##  8 Net … 1      9         11    11    -14.8     10 3.90e- 8 1.76e-6 ****        
##  9 Net … 1      10        11    11    -24.4     10 3.07e-10 1.38e-8 ****        
## 10 Net … 2      3         11    11    -11.8     10 3.45e- 7 1.55e-5 ****        
## # ℹ 35 more rows
…
